{
  "annotations": {
    "list": [
      {
        "builtIn": 1,
        "datasource": "-- Grafana --",
        "enable": true,
        "hide": false,
        "iconColor": "#fceaca",
        "limit": 100,
        "name": "Annotations & Alerts",
        "showIn": 0,
        "type": "dashboard"
      },
      {
        "datasource": "PostgreSQL",
        "enable": true,
        "hide": false,
        "iconColor": "rgba(255, 96, 96, 1)",
        "limit": 100,
        "name": "Event Annotations",
        "rawQuery": "SELECT\n  timestamp_start AS time,\n  timestamp_end AS time_end,\n  event_name as text,\n  user_id as tags\nFROM\n  annotations\nWHERE\n user_id=$users\n",
        "showIn": 0,
        "tags": [],
        "type": "tags"
      }
    ]
  },
  "editable": true,
  "gnetId": null,
  "graphTooltip": 0,
  "id": 1,
  "iteration": 1555085899007,
  "links": [],
  "panels": [
    {
      "aliasColors": {},
      "bars": false,
      "dashLength": 10,
      "dashes": false,
      "fill": 1,
      "gridPos": {
        "h": 9,
        "w": 12,
        "x": 0,
        "y": 0
      },
      "id": 5,
      "legend": {
        "alignAsTable": true,
        "avg": false,
        "current": true,
        "max": false,
        "min": false,
        "rightSide": true,
        "show": true,
        "total": false,
        "values": true
      },
      "lines": false,
      "linewidth": 1,
      "links": [],
      "nullPointMode": "null",
      "paceLength": 10,
      "percentage": false,
      "pointradius": 1,
      "points": true,
      "renderer": "flot",
      "seriesOverrides": [],
      "spaceLength": 10,
      "stack": false,
      "steppedLine": true,
      "targets": [
        {
          "format": "time_series",
          "group": [],
          "hide": false,
          "metricColumn": "none",
          "rawQuery": true,
          "rawSql": "SELECT\n  e.timestamp_start AS \"time\",\n  p.probability AS \"Standing\"\nFROM probability_data AS p, events AS e\nWHERE event_type=1 AND CAST(user_id AS numeric)=$users AND p.event_id=e.event_id AND e.model_name=$models;",
          "refId": "A",
          "select": [
            [
              {
                "params": [
                  "probability"
                ],
                "type": "column"
              }
            ]
          ],
          "table": "probability_data",
          "timeColumn": "timestamp_start",
          "timeColumnType": "int8",
          "where": []
        },
        {
          "format": "time_series",
          "group": [],
          "hide": false,
          "metricColumn": "none",
          "rawQuery": true,
          "rawSql": "SELECT\n  e.timestamp_start AS \"time\",\n  p.probability AS \"Sitting\"\nFROM probability_data AS p, events AS e\nWHERE event_type=2 AND CAST(user_id AS numeric)=$users AND p.event_id=e.event_id AND e.model_name=$models;",
          "refId": "B",
          "select": [
            [
              {
                "params": [
                  "probability"
                ],
                "type": "column"
              }
            ]
          ],
          "table": "probability_data",
          "timeColumn": "timestamp_start",
          "timeColumnType": "int8",
          "where": []
        },
        {
          "format": "time_series",
          "group": [],
          "hide": false,
          "metricColumn": "none",
          "rawQuery": true,
          "rawSql": "SELECT\n  e.timestamp_start AS \"time\",\n  p.probability AS \"Walking\"\nFROM probability_data AS p, events AS e\nWHERE event_type=3 AND CAST(user_id AS numeric)=$users AND p.event_id=e.event_id AND e.model_name=$models;",
          "refId": "C",
          "select": [
            [
              {
                "params": [
                  "probability"
                ],
                "type": "column"
              }
            ]
          ],
          "table": "probability_data",
          "timeColumn": "timestamp_start",
          "timeColumnType": "int8",
          "where": []
        },
        {
          "format": "time_series",
          "group": [],
          "hide": false,
          "metricColumn": "none",
          "rawQuery": true,
          "rawSql": "SELECT\n  e.timestamp_start AS \"time\",\n  p.probability AS \"Stairs Up\"\nFROM probability_data AS p, events AS e\nWHERE event_type=4 AND CAST(user_id AS numeric)=$users AND p.event_id=e.event_id AND e.model_name=$models;",
          "refId": "D",
          "select": [
            [
              {
                "params": [
                  "probability"
                ],
                "type": "column"
              }
            ]
          ],
          "table": "probability_data",
          "timeColumn": "timestamp_start",
          "timeColumnType": "int8",
          "where": []
        },
        {
          "format": "time_series",
          "group": [],
          "hide": false,
          "metricColumn": "none",
          "rawQuery": true,
          "rawSql": "SELECT\n  e.timestamp_start AS \"time\",\n  p.probability AS \"Stairs Down\"\nFROM probability_data AS p, events AS e\nWHERE event_type=5 AND CAST(user_id AS numeric)=$users AND p.event_id=e.event_id AND e.model_name=$models;",
          "refId": "E",
          "select": [
            [
              {
                "params": [
                  "probability"
                ],
                "type": "column"
              }
            ]
          ],
          "table": "probability_data",
          "timeColumn": "timestamp_start",
          "timeColumnType": "int8",
          "where": []
        },
        {
          "format": "time_series",
          "group": [],
          "hide": false,
          "metricColumn": "none",
          "rawQuery": true,
          "rawSql": "SELECT\n  e.timestamp_start AS \"time\",\n  p.probability AS \"Biking\"\nFROM probability_data AS p, events AS e\nWHERE event_type=6 AND CAST(user_id AS numeric)=$users AND p.event_id=e.event_id AND e.model_name=$models;",
          "refId": "F",
          "select": [
            [
              {
                "params": [
                  "probability"
                ],
                "type": "column"
              }
            ]
          ],
          "table": "probability_data",
          "timeColumn": "timestamp_start",
          "timeColumnType": "int8",
          "where": []
        }
      ],
      "thresholds": [],
      "timeFrom": null,
      "timeRegions": [],
      "timeShift": null,
      "title": "PREDICTION PROBABILITIES",
      "tooltip": {
        "shared": true,
        "sort": 0,
        "value_type": "individual"
      },
      "type": "graph",
      "xaxis": {
        "buckets": null,
        "mode": "time",
        "name": null,
        "show": true,
        "values": []
      },
      "yaxes": [
        {
          "format": "short",
          "label": null,
          "logBase": 1,
          "max": null,
          "min": null,
          "show": true
        },
        {
          "format": "short",
          "label": null,
          "logBase": 1,
          "max": null,
          "min": null,
          "show": true
        }
      ],
      "yaxis": {
        "align": false,
        "alignLevel": null
      }
    },
    {
      "aliasColors": {},
      "bars": false,
      "dashLength": 10,
      "dashes": false,
      "fill": 0,
      "gridPos": {
        "h": 9,
        "w": 12,
        "x": 12,
        "y": 0
      },
      "id": 13,
      "legend": {
        "avg": false,
        "current": false,
        "max": false,
        "min": false,
        "show": true,
        "total": false,
        "values": false
      },
      "lines": false,
      "linewidth": 1,
      "links": [],
      "nullPointMode": "null",
      "paceLength": 10,
      "percentage": false,
      "pointradius": 0.5,
      "points": true,
      "renderer": "flot",
      "seriesOverrides": [],
      "spaceLength": 10,
      "stack": false,
      "steppedLine": false,
      "targets": [
        {
          "format": "time_series",
          "group": [
            {
              "params": [
                "10m",
                "none"
              ],
              "type": "time"
            }
          ],
          "metricColumn": "none",
          "rawQuery": true,
          "rawSql": "SELECT\n  $__unixEpochGroupAlias(\"timestamp\",10m),\n  avg(accel_x) AS \"Accel X\"\nFROM comp_data\nWHERE user_id=$users\nGROUP BY 1\nORDER BY 1",
          "refId": "A",
          "select": [
            [
              {
                "params": [
                  "accel_x"
                ],
                "type": "column"
              },
              {
                "params": [
                  "avg"
                ],
                "type": "aggregate"
              },
              {
                "params": [
                  "Accel X"
                ],
                "type": "alias"
              }
            ]
          ],
          "table": "comp_data",
          "timeColumn": "\"timestamp\"",
          "timeColumnType": "int8",
          "where": []
        },
        {
          "format": "time_series",
          "group": [
            {
              "params": [
                "10m",
                "none"
              ],
              "type": "time"
            }
          ],
          "metricColumn": "none",
          "rawQuery": true,
          "rawSql": "SELECT\n  $__unixEpochGroupAlias(\"timestamp\",10m),\n  avg(accel_y) AS \"Accel Y\"\nFROM comp_data\nWHERE user_id=$users\nGROUP BY 1\nORDER BY 1",
          "refId": "B",
          "select": [
            [
              {
                "params": [
                  "accel_y"
                ],
                "type": "column"
              },
              {
                "params": [
                  "avg"
                ],
                "type": "aggregate"
              },
              {
                "params": [
                  "Accel Y"
                ],
                "type": "alias"
              }
            ]
          ],
          "table": "comp_data",
          "timeColumn": "\"timestamp\"",
          "timeColumnType": "int8",
          "where": []
        },
        {
          "format": "time_series",
          "group": [
            {
              "params": [
                "10m",
                "none"
              ],
              "type": "time"
            }
          ],
          "metricColumn": "none",
          "rawQuery": true,
          "rawSql": "SELECT\n  $__unixEpochGroupAlias(\"timestamp\",10m),\n  avg(accel_z) AS \"Accel Z\"\nFROM comp_data\nWHERE user_id=$users\nGROUP BY 1\nORDER BY 1",
          "refId": "C",
          "select": [
            [
              {
                "params": [
                  "accel_z"
                ],
                "type": "column"
              },
              {
                "params": [
                  "avg"
                ],
                "type": "aggregate"
              },
              {
                "params": [
                  "Accel Z"
                ],
                "type": "alias"
              }
            ]
          ],
          "table": "comp_data",
          "timeColumn": "\"timestamp\"",
          "timeColumnType": "int8",
          "where": []
        }
      ],
      "thresholds": [],
      "timeFrom": null,
      "timeRegions": [],
      "timeShift": null,
      "title": "COMP ACCELEROMETER",
      "tooltip": {
        "shared": true,
        "sort": 0,
        "value_type": "individual"
      },
      "type": "graph",
      "xaxis": {
        "buckets": null,
        "mode": "time",
        "name": null,
        "show": true,
        "values": []
      },
      "yaxes": [
        {
          "format": "short",
          "label": null,
          "logBase": 1,
          "max": null,
          "min": null,
          "show": true
        },
        {
          "format": "short",
          "label": null,
          "logBase": 1,
          "max": null,
          "min": null,
          "show": true
        }
      ],
      "yaxis": {
        "align": false,
        "alignLevel": null
      }
    },
    {
      "columns": [],
      "fontSize": "100%",
      "gridPos": {
        "h": 9,
        "w": 6,
        "x": 0,
        "y": 9
      },
      "id": 7,
      "links": [],
      "pageSize": null,
      "scroll": true,
      "showHeader": true,
      "sort": {
        "col": 0,
        "desc": true
      },
      "styles": [
        {
          "alias": "Time",
          "dateFormat": "YYYY-MM-DD HH:mm:ss",
          "pattern": "Time",
          "type": "date"
        },
        {
          "alias": "",
          "colorMode": null,
          "colors": [
            "rgba(245, 54, 54, 0.9)",
            "rgba(237, 129, 40, 0.89)",
            "rgba(50, 172, 45, 0.97)"
          ],
          "decimals": 2,
          "pattern": "/.*/",
          "thresholds": [],
          "type": "number",
          "unit": "short"
        }
      ],
      "targets": [
        {
          "format": "table",
          "group": [],
          "metricColumn": "none",
          "rawQuery": true,
          "rawSql": "SELECT *\nFROM users\n;",
          "refId": "A",
          "select": [
            [
              {
                "params": [
                  "value"
                ],
                "type": "column"
              }
            ]
          ],
          "timeColumn": "time",
          "where": [
            {
              "name": "$__timeFilter",
              "params": [],
              "type": "macro"
            }
          ]
        }
      ],
      "title": "USER INFORMATION",
      "transform": "table",
      "type": "table"
    },
    {
      "cacheTimeout": null,
      "colorBackground": false,
      "colorPostfix": false,
      "colorPrefix": false,
      "colorValue": true,
      "colors": [
        "#5794F2",
        "#B877D9",
        "#FADE2A"
      ],
      "format": "none",
      "gauge": {
        "maxValue": 100,
        "minValue": 0,
        "show": false,
        "thresholdLabels": false,
        "thresholdMarkers": true
      },
      "gridPos": {
        "h": 5,
        "w": 6,
        "x": 6,
        "y": 9
      },
      "id": 16,
      "interval": null,
      "links": [],
      "mappingType": 1,
      "mappingTypes": [
        {
          "name": "value to text",
          "value": 1
        },
        {
          "name": "range to text",
          "value": 2
        }
      ],
      "maxDataPoints": 100,
      "nullPointMode": "connected",
      "nullText": null,
      "postfix": "",
      "postfixFontSize": "80%",
      "prefix": "",
      "prefixFontSize": "80%",
      "rangeMaps": [
        {
          "from": "null",
          "text": "N/A",
          "to": "null"
        }
      ],
      "sparkline": {
        "fillColor": "rgba(31, 118, 189, 0.18)",
        "full": false,
        "lineColor": "rgb(31, 120, 193)",
        "show": false
      },
      "tableColumn": "count",
      "targets": [
        {
          "format": "table",
          "group": [],
          "metricColumn": "none",
          "rawQuery": true,
          "rawSql": "SELECT\n  COUNT(*)\nFROM \"comp_data\"",
          "refId": "A",
          "select": [
            [
              {
                "params": [
                  "accel_x"
                ],
                "type": "column"
              }
            ]
          ],
          "table": "users",
          "timeColumn": "accel_x",
          "timeColumnType": "float8",
          "where": []
        }
      ],
      "thresholds": "",
      "timeFrom": null,
      "timeShift": null,
      "title": "Total Composite Datapoints",
      "type": "singlestat",
      "valueFontSize": "100%",
      "valueMaps": [
        {
          "op": "=",
          "text": "N/A",
          "value": "null"
        }
      ],
      "valueName": "avg"
    },
    {
      "aliasColors": {},
      "bars": false,
      "dashLength": 10,
      "dashes": false,
      "fill": 0,
      "gridPos": {
        "h": 9,
        "w": 12,
        "x": 12,
        "y": 9
      },
      "id": 3,
      "legend": {
        "avg": false,
        "current": false,
        "max": false,
        "min": false,
        "show": true,
        "total": false,
        "values": false
      },
      "lines": false,
      "linewidth": 1,
      "links": [],
      "nullPointMode": "null",
      "paceLength": 10,
      "percentage": false,
      "pointradius": 0.5,
      "points": true,
      "renderer": "flot",
      "seriesOverrides": [],
      "spaceLength": 10,
      "stack": false,
      "steppedLine": false,
      "targets": [
        {
          "format": "time_series",
          "group": [
            {
              "params": [
                "10m",
                "none"
              ],
              "type": "time"
            }
          ],
          "metricColumn": "none",
          "rawQuery": true,
          "rawSql": "SELECT\n  $__unixEpochGroupAlias(\"timestamp\",10m),\n  avg(gyro_x) AS \"Gyro X\"\nFROM comp_data\nWHERE user_id=$users\nGROUP BY 1\nORDER BY 1",
          "refId": "A",
          "select": [
            [
              {
                "params": [
                  "gyro_x"
                ],
                "type": "column"
              },
              {
                "params": [
                  "avg"
                ],
                "type": "aggregate"
              },
              {
                "params": [
                  "Gyro X"
                ],
                "type": "alias"
              }
            ]
          ],
          "table": "comp_data",
          "timeColumn": "\"timestamp\"",
          "timeColumnType": "int8",
          "where": []
        },
        {
          "format": "time_series",
          "group": [
            {
              "params": [
                "10m",
                "none"
              ],
              "type": "time"
            }
          ],
          "metricColumn": "none",
          "rawQuery": true,
          "rawSql": "SELECT\n  $__unixEpochGroupAlias(\"timestamp\",10m),\n  avg(gyro_y) AS \"Gyro Y\"\nFROM comp_data\nWHERE user_id=$users\nGROUP BY 1\nORDER BY 1",
          "refId": "B",
          "select": [
            [
              {
                "params": [
                  "gyro_y"
                ],
                "type": "column"
              },
              {
                "params": [
                  "avg"
                ],
                "type": "aggregate"
              },
              {
                "params": [
                  "Gyro Y"
                ],
                "type": "alias"
              }
            ]
          ],
          "table": "comp_data",
          "timeColumn": "\"timestamp\"",
          "timeColumnType": "int8",
          "where": []
        },
        {
          "format": "time_series",
          "group": [
            {
              "params": [
                "10m",
                "none"
              ],
              "type": "time"
            }
          ],
          "metricColumn": "none",
          "rawQuery": true,
          "rawSql": "SELECT\n  $__unixEpochGroupAlias(\"timestamp\",10m),\n  avg(gyro_z) AS \"gyro_z\"\nFROM comp_data\nWHERE user_id=$users\nGROUP BY 1\nORDER BY 1",
          "refId": "C",
          "select": [
            [
              {
                "params": [
                  "gyro_z"
                ],
                "type": "column"
              },
              {
                "params": [
                  "avg"
                ],
                "type": "aggregate"
              },
              {
                "params": [
                  "gyro_z"
                ],
                "type": "alias"
              }
            ]
          ],
          "table": "comp_data",
          "timeColumn": "\"timestamp\"",
          "timeColumnType": "int8",
          "where": []
        }
      ],
      "thresholds": [],
      "timeFrom": null,
      "timeRegions": [],
      "timeShift": null,
      "title": "COMP GYROSCOPE",
      "tooltip": {
        "shared": true,
        "sort": 0,
        "value_type": "individual"
      },
      "type": "graph",
      "xaxis": {
        "buckets": null,
        "mode": "time",
        "name": null,
        "show": true,
        "values": []
      },
      "yaxes": [
        {
          "format": "short",
          "label": null,
          "logBase": 1,
          "max": null,
          "min": null,
          "show": true
        },
        {
          "format": "short",
          "label": null,
          "logBase": 1,
          "max": null,
          "min": null,
          "show": true
        }
      ],
      "yaxis": {
        "align": false,
        "alignLevel": null
      }
    },
    {
      "cacheTimeout": null,
      "colorBackground": false,
      "colorPostfix": false,
      "colorPrefix": false,
      "colorValue": true,
      "colors": [
        "#5794F2",
        "#FA6400",
        "#FADE2A"
      ],
      "format": "none",
      "gauge": {
        "maxValue": 100,
        "minValue": 0,
        "show": false,
        "thresholdLabels": false,
        "thresholdMarkers": true
      },
      "gridPos": {
        "h": 4,
        "w": 3,
        "x": 6,
        "y": 14
      },
      "id": 14,
      "interval": null,
      "links": [],
      "mappingType": 1,
      "mappingTypes": [
        {
          "name": "value to text",
          "value": 1
        },
        {
          "name": "range to text",
          "value": 2
        }
      ],
      "maxDataPoints": 100,
      "nullPointMode": "connected",
      "nullText": null,
      "postfix": "",
      "postfixFontSize": "80%",
      "prefix": "",
      "prefixFontSize": "80%",
      "rangeMaps": [
        {
          "from": "null",
          "text": "N/A",
          "to": "null"
        }
      ],
      "sparkline": {
        "fillColor": "rgba(31, 118, 189, 0.18)",
        "full": false,
        "lineColor": "rgb(31, 120, 193)",
        "show": false
      },
      "tableColumn": "count",
      "targets": [
        {
          "format": "table",
          "group": [],
          "metricColumn": "none",
          "rawQuery": true,
          "rawSql": "SELECT\n  COUNT(*)\nFROM accel_data",
          "refId": "A",
          "select": [
            [
              {
                "params": [
                  "accel_x"
                ],
                "type": "column"
              }
            ]
          ],
          "table": "users",
          "timeColumn": "accel_x",
          "timeColumnType": "float8",
          "where": []
        }
      ],
      "thresholds": "",
      "timeFrom": null,
      "timeShift": null,
      "title": "Total Accel Datapoints",
      "type": "singlestat",
      "valueFontSize": "100%",
      "valueMaps": [
        {
          "op": "=",
          "text": "N/A",
          "value": "null"
        }
      ],
      "valueName": "avg"
    },
    {
      "cacheTimeout": null,
      "colorBackground": false,
      "colorPostfix": false,
      "colorPrefix": false,
      "colorValue": true,
      "colors": [
        "#73BF69",
        "#56A64B",
        "#d44a3a"
      ],
      "format": "none",
      "gauge": {
        "maxValue": 100,
        "minValue": 0,
        "show": false,
        "thresholdLabels": false,
        "thresholdMarkers": true
      },
      "gridPos": {
        "h": 4,
        "w": 3,
        "x": 9,
        "y": 14
      },
      "id": 15,
      "interval": null,
      "links": [],
      "mappingType": 1,
      "mappingTypes": [
        {
          "name": "value to text",
          "value": 1
        },
        {
          "name": "range to text",
          "value": 2
        }
      ],
      "maxDataPoints": 100,
      "nullPointMode": "connected",
      "nullText": null,
      "postfix": "",
      "postfixFontSize": "80%",
      "prefix": "",
      "prefixFontSize": "80%",
      "rangeMaps": [
        {
          "from": "null",
          "text": "N/A",
          "to": "null"
        }
      ],
      "sparkline": {
        "fillColor": "rgba(31, 118, 189, 0.18)",
        "full": false,
        "lineColor": "rgb(31, 120, 193)",
        "show": false
      },
      "tableColumn": "count",
      "targets": [
        {
          "format": "table",
          "group": [],
          "metricColumn": "none",
          "rawQuery": true,
          "rawSql": "SELECT\n  COUNT(*)\nFROM gyro_data",
          "refId": "A",
          "select": [
            [
              {
                "params": [
                  "accel_x"
                ],
                "type": "column"
              }
            ]
          ],
          "table": "users",
          "timeColumn": "accel_x",
          "timeColumnType": "float8",
          "where": []
        }
      ],
      "thresholds": "",
      "timeFrom": null,
      "timeShift": null,
      "title": "Total Gyro Datapoints",
      "type": "singlestat",
      "valueFontSize": "100%",
      "valueMaps": [
        {
          "op": "=",
          "text": "N/A",
          "value": "null"
        }
      ],
      "valueName": "avg"
    },
    {
      "columns": [],
      "fontSize": "100%",
      "gridPos": {
        "h": 8,
        "w": 6,
        "x": 0,
        "y": 18
      },
      "id": 9,
      "interval": "10m",
      "links": [],
      "pageSize": null,
      "scroll": true,
      "showHeader": true,
      "sort": {
        "col": null,
        "desc": false
      },
      "styles": [
        {
          "alias": "",
          "colorMode": null,
          "colors": [
            "rgba(245, 54, 54, 0.9)",
            "rgba(237, 129, 40, 0.89)",
            "rgba(50, 172, 45, 0.97)"
          ],
          "dateFormat": "YYYY-MM-DD HH:mm:ss",
          "decimals": 0,
          "mappingType": 1,
          "pattern": "Id",
          "thresholds": [],
          "type": "number",
          "unit": "short"
        },
        {
          "alias": "",
          "colorMode": null,
          "colors": [
            "rgba(245, 54, 54, 0.9)",
            "rgba(237, 129, 40, 0.89)",
            "rgba(50, 172, 45, 0.97)"
          ],
          "decimals": 2,
          "pattern": "/.*/",
          "thresholds": [],
          "type": "number",
          "unit": "short"
        }
      ],
      "targets": [
        {
          "format": "table",
          "group": [],
          "metricColumn": "none",
          "rawQuery": true,
          "rawSql": "SELECT name AS \"Event Name\", id AS \"Id\"\nFROM event_type;",
          "refId": "A",
          "select": [
            [
              {
                "params": [
                  "value"
                ],
                "type": "column"
              }
            ]
          ],
          "timeColumn": "time",
          "where": [
            {
              "name": "$__timeFilter",
              "params": [],
              "type": "macro"
            }
          ]
        }
      ],
      "title": "EVENT TYPES",
      "transform": "table",
      "type": "table"
    },
    {
      "cacheTimeout": null,
      "colorBackground": false,
      "colorPostfix": false,
      "colorPrefix": false,
      "colorValue": true,
      "colors": [
        "#73BF69",
        "rgba(237, 129, 40, 0.89)",
        "#d44a3a"
      ],
      "format": "none",
      "gauge": {
        "maxValue": 100,
        "minValue": 0,
        "show": false,
        "thresholdLabels": false,
        "thresholdMarkers": true
      },
      "gridPos": {
        "h": 4,
        "w": 3,
        "x": 6,
        "y": 18
      },
      "id": 11,
      "interval": null,
      "links": [],
      "mappingType": 1,
      "mappingTypes": [
        {
          "name": "value to text",
          "value": 1
        },
        {
          "name": "range to text",
          "value": 2
        }
      ],
      "maxDataPoints": 100,
      "nullPointMode": "connected",
      "nullText": null,
      "postfix": "",
      "postfixFontSize": "80%",
      "prefix": "",
      "prefixFontSize": "80%",
      "rangeMaps": [
        {
          "from": "null",
          "text": "N/A",
          "to": "null"
        }
      ],
      "sparkline": {
        "fillColor": "rgba(31, 118, 189, 0.18)",
        "full": false,
        "lineColor": "rgb(31, 120, 193)",
        "show": false
      },
      "tableColumn": "count",
      "targets": [
        {
          "format": "table",
          "group": [],
          "metricColumn": "none",
          "rawQuery": true,
          "rawSql": "SELECT\n  COUNT(*)\nFROM users",
          "refId": "A",
          "select": [
            [
              {
                "params": [
                  "accel_x"
                ],
                "type": "column"
              }
            ]
          ],
          "table": "users",
          "timeColumn": "accel_x",
          "timeColumnType": "float8",
          "where": []
        }
      ],
      "thresholds": "",
      "timeFrom": null,
      "timeShift": null,
      "title": "Total Users",
      "type": "singlestat",
      "valueFontSize": "80%",
      "valueMaps": [
        {
          "op": "=",
          "text": "N/A",
          "value": "null"
        }
      ],
      "valueName": "avg"
    },
    {
      "cacheTimeout": null,
      "colorBackground": false,
      "colorPostfix": false,
      "colorPrefix": false,
      "colorValue": true,
      "colors": [
        "#73BF69",
        "rgba(237, 129, 40, 0.89)",
        "#d44a3a"
      ],
      "format": "none",
      "gauge": {
        "maxValue": 100,
        "minValue": 0,
        "show": false,
        "thresholdLabels": false,
        "thresholdMarkers": true
      },
      "gridPos": {
        "h": 4,
        "w": 3,
        "x": 9,
        "y": 18
      },
      "id": 17,
      "interval": null,
      "links": [],
      "mappingType": 1,
      "mappingTypes": [
        {
          "name": "value to text",
          "value": 1
        },
        {
          "name": "range to text",
          "value": 2
        }
      ],
      "maxDataPoints": 100,
      "nullPointMode": "connected",
      "nullText": null,
      "postfix": "",
      "postfixFontSize": "80%",
      "prefix": "",
      "prefixFontSize": "80%",
      "rangeMaps": [
        {
          "from": "null",
          "text": "N/A",
          "to": "null"
        }
      ],
      "sparkline": {
        "fillColor": "rgba(31, 118, 189, 0.18)",
        "full": false,
        "lineColor": "rgb(31, 120, 193)",
        "show": false
      },
      "tableColumn": "count",
      "targets": [
        {
          "format": "table",
          "group": [],
          "metricColumn": "none",
          "rawQuery": true,
          "rawSql": "SELECT\n  COUNT(*)\nFROM users",
          "refId": "A",
          "select": [
            [
              {
                "params": [
                  "accel_x"
                ],
                "type": "column"
              }
            ]
          ],
          "table": "users",
          "timeColumn": "accel_x",
          "timeColumnType": "float8",
          "where": []
        }
      ],
      "thresholds": "",
      "timeFrom": null,
      "timeShift": null,
      "title": "Total Users",
      "type": "singlestat",
      "valueFontSize": "80%",
      "valueMaps": [
        {
          "op": "=",
          "text": "N/A",
          "value": "null"
        }
      ],
      "valueName": "avg"
    }
  ],
  "schemaVersion": 18,
  "style": "dark",
  "tags": [],
  "templating": {
    "list": [
      {
        "allValue": null,
        "current": {
          "tags": [],
          "text": "101983645250378055770",
          "value": [
            "101983645250378055770"
          ]
        },
        "datasource": "PostgreSQL",
        "definition": "SELECT user_id FROM users;",
        "hide": 0,
        "includeAll": false,
        "label": "Select User",
        "multi": true,
        "name": "users",
        "options": [
          {
            "selected": false,
            "text": "114468550884477642098",
            "value": "114468550884477642098"
          },
          {
            "selected": false,
            "text": "113192390640087944283",
            "value": "113192390640087944283"
          },
          {
            "selected": false,
            "text": "113719448805601616356",
            "value": "113719448805601616356"
          },
          {
            "selected": false,
            "text": "109000106753081901551",
            "value": "109000106753081901551"
          },
          {
            "selected": false,
            "text": "114177112806004239631",
            "value": "114177112806004239631"
          },
          {
            "selected": true,
            "text": "101983645250378055770",
            "value": "101983645250378055770"
          },
          {
            "selected": false,
            "text": "109396149343118863064",
            "value": "109396149343118863064"
          }
        ],
        "query": "SELECT user_id FROM users;",
        "refresh": 0,
        "regex": "",
        "skipUrlSync": false,
        "sort": 0,
        "tagValuesQuery": "",
        "tags": [],
        "tagsQuery": "",
        "type": "query",
        "useTags": false
      },
      {
        "allValue": null,
        "current": {
          "tags": [],
          "text": "stand",
          "value": [
            "stand"
          ]
        },
        "datasource": "PostgreSQL",
        "definition": "SELECT name FROM event_type;",
        "hide": 2,
        "includeAll": false,
        "label": null,
        "multi": true,
        "name": "activities",
        "options": [
          {
            "selected": true,
            "text": "stand",
            "value": "stand"
          },
          {
            "selected": false,
            "text": "sit",
            "value": "sit"
          },
          {
            "selected": false,
            "text": "walk",
            "value": "walk"
          },
          {
            "selected": false,
            "text": "stairsup",
            "value": "stairsup"
          },
          {
            "selected": false,
            "text": "stairsdown",
            "value": "stairsdown"
          },
          {
            "selected": false,
            "text": "bike",
            "value": "bike"
          }
        ],
        "query": "SELECT name FROM event_type;",
        "refresh": 0,
        "regex": "",
        "skipUrlSync": false,
        "sort": 0,
        "tagValuesQuery": "",
        "tags": [],
        "tagsQuery": "",
        "type": "query",
        "useTags": false
      },
      {
        "allValue": null,
        "current": {
          "tags": [],
          "text": "sensorflow_1.2",
          "value": [
            "sensorflow_1.2"
          ]
        },
        "datasource": "PostgreSQL",
        "definition": "SELECT DISTINCT model_name FROM events;",
        "hide": 0,
        "includeAll": false,
        "label": null,
        "multi": true,
        "name": "models",
        "options": [
          {
            "selected": false,
            "text": "SensorFlow_Lit_1.3_lit",
            "value": "SensorFlow_Lit_1.3_lit"
          },
          {
            "selected": false,
            "text": "asd_lit",
            "value": "asd_lit"
          },
          {
            "selected": true,
            "text": "sensorflow_1.2",
            "value": "sensorflow_1.2"
          },
          {
            "selected": false,
            "text": "sensorflow_1.2_lit",
            "value": "sensorflow_1.2_lit"
          }
        ],
        "query": "SELECT DISTINCT model_name FROM events;",
        "refresh": 0,
        "regex": "",
        "skipUrlSync": false,
        "sort": 0,
        "tagValuesQuery": "",
        "tags": [],
        "tagsQuery": "",
        "type": "query",
        "useTags": false
      }
    ]
  },
  "time": {
    "from": "now-15m",
    "to": "now"
  },
  "timepicker": {
    "refresh_intervals": [
      "0.5s",
      " 1s",
      " 5s",
      "10s",
      "30s",
      "1m",
      "5m",
      "15m",
      "30m",
      "1h",
      "2h",
      "1d"
    ],
    "time_options": [
      "5m",
      "15m",
      "1h",
      "6h",
      "12h",
      "24h",
      "2d",
      "7d",
      "30d"
    ]
  },
  "timezone": "",
  "title": "ML HAR",
  "uid": "CQmFeTrmk",
  "version": 7
}