{
  "annotations": {
    "list": [
      {
        "builtIn": 1,
        "datasource": "-- Grafana --",
        "enable": true,
        "hide": false,
        "iconColor": "#fceaca",
        "limit": 100,
        "name": "Annotations & Alerts",
        "showIn": 0,
        "type": "dashboard"
      },
      {
        "datasource": "PostgreSQL",
        "enable": true,
        "hide": false,
        "iconColor": "rgba(255, 96, 96, 1)",
        "limit": 100,
        "name": "Event Annotations",
        "rawQuery": "SELECT\n  timestamp_start AS time,\n  timestamp_end AS time_end,\n  event_name as text,\n  user_id as tags\nFROM\n  annotations\n",
        "showIn": 0,
        "tags": [],
        "type": "tags"
      }
    ]
  },
  "editable": true,
  "gnetId": null,
  "graphTooltip": 0,
  "id": 1,
  "iteration": 1551027681714,
  "links": [],
  "panels": [
    {
      "aliasColors": {},
      "bars": false,
      "dashLength": 10,
      "dashes": false,
      "fill": 1,
      "gridPos": {
        "h": 9,
        "w": 12,
        "x": 0,
        "y": 0
      },
      "id": 5,
      "legend": {
        "alignAsTable": true,
        "avg": false,
        "current": true,
        "max": false,
        "min": false,
        "rightSide": true,
        "show": true,
        "total": false,
        "values": true
      },
      "lines": true,
      "linewidth": 1,
      "links": [],
      "nullPointMode": "null",
      "percentage": false,
      "pointradius": 1,
      "points": false,
      "renderer": "flot",
      "seriesOverrides": [],
      "spaceLength": 10,
      "stack": true,
      "steppedLine": true,
      "targets": [
        {
          "format": "time_series",
          "group": [],
          "hide": false,
          "metricColumn": "none",
          "rawQuery": true,
          "rawSql": "SELECT\n  timestamp_start AS \"time\",\n  probability AS \"Standing\"\nFROM probability_data\nWHERE event_type=1 AND CAST(user_id AS numeric)=$users;",
          "refId": "A",
          "select": [
            [
              {
                "params": [
                  "probability"
                ],
                "type": "column"
              }
            ]
          ],
          "table": "probability_data",
          "timeColumn": "timestamp_start",
          "timeColumnType": "int8",
          "where": []
        },
        {
          "format": "time_series",
          "group": [],
          "hide": false,
          "metricColumn": "none",
          "rawQuery": true,
          "rawSql": "SELECT\n  timestamp_start AS \"time\",\n  probability AS \"Sitting\"\nFROM probability_data\nWHERE event_type=2 AND CAST(user_id AS numeric)=$users;",
          "refId": "B",
          "select": [
            [
              {
                "params": [
                  "probability"
                ],
                "type": "column"
              }
            ]
          ],
          "table": "probability_data",
          "timeColumn": "timestamp_start",
          "timeColumnType": "int8",
          "where": []
        },
        {
          "format": "time_series",
          "group": [],
          "hide": false,
          "metricColumn": "none",
          "rawQuery": true,
          "rawSql": "SELECT\n  timestamp_start AS \"time\",\n  probability AS \"Walking\"\nFROM probability_data\nWHERE event_type=3 AND CAST(user_id AS numeric)=$users;",
          "refId": "C",
          "select": [
            [
              {
                "params": [
                  "probability"
                ],
                "type": "column"
              }
            ]
          ],
          "table": "probability_data",
          "timeColumn": "timestamp_start",
          "timeColumnType": "int8",
          "where": []
        },
        {
          "format": "time_series",
          "group": [],
          "hide": false,
          "metricColumn": "none",
          "rawQuery": true,
          "rawSql": "SELECT\n  timestamp_start AS \"time\",\n  probability AS \"Stairs Up\"\nFROM probability_data\nWHERE event_type=4 AND CAST(user_id AS numeric)=$users;",
          "refId": "D",
          "select": [
            [
              {
                "params": [
                  "probability"
                ],
                "type": "column"
              }
            ]
          ],
          "table": "probability_data",
          "timeColumn": "timestamp_start",
          "timeColumnType": "int8",
          "where": []
        },
        {
          "format": "time_series",
          "group": [],
          "hide": false,
          "metricColumn": "none",
          "rawQuery": true,
          "rawSql": "SELECT\n  timestamp_start AS \"time\",\n  probability AS \"Stairs Down\"\nFROM probability_data\nWHERE event_type=5 AND CAST(user_id AS numeric)=$users;",
          "refId": "E",
          "select": [
            [
              {
                "params": [
                  "probability"
                ],
                "type": "column"
              }
            ]
          ],
          "table": "probability_data",
          "timeColumn": "timestamp_start",
          "timeColumnType": "int8",
          "where": []
        },
        {
          "format": "time_series",
          "group": [],
          "hide": false,
          "metricColumn": "none",
          "rawQuery": true,
          "rawSql": "SELECT\n  timestamp_start AS \"time\",\n  probability AS \"Biking\"\nFROM probability_data\nWHERE event_type=6 AND CAST(user_id AS numeric)=$users;",
          "refId": "F",
          "select": [
            [
              {
                "params": [
                  "probability"
                ],
                "type": "column"
              }
            ]
          ],
          "table": "probability_data",
          "timeColumn": "timestamp_start",
          "timeColumnType": "int8",
          "where": []
        }
      ],
      "thresholds": [],
      "timeFrom": null,
      "timeRegions": [],
      "timeShift": null,
      "title": "PREDICTION PROBABILITIES",
      "tooltip": {
        "shared": true,
        "sort": 0,
        "value_type": "individual"
      },
      "type": "graph",
      "xaxis": {
        "buckets": null,
        "mode": "time",
        "name": null,
        "show": true,
        "values": []
      },
      "yaxes": [
        {
          "format": "short",
          "label": null,
          "logBase": 1,
          "max": null,
          "min": null,
          "show": true
        },
        {
          "format": "short",
          "label": null,
          "logBase": 1,
          "max": null,
          "min": null,
          "show": true
        }
      ],
      "yaxis": {
        "align": false,
        "alignLevel": null
      }
    },
    {
      "aliasColors": {},
      "bars": false,
      "dashLength": 10,
      "dashes": false,
      "fill": 0,
      "gridPos": {
        "h": 9,
        "w": 12,
        "x": 12,
        "y": 0
      },
      "id": 2,
      "legend": {
        "avg": false,
        "current": false,
        "max": false,
        "min": false,
        "show": true,
        "total": false,
        "values": false
      },
      "lines": false,
      "linewidth": 1,
      "links": [],
      "nullPointMode": "null",
      "percentage": false,
      "pointradius": 0.5,
      "points": true,
      "renderer": "flot",
      "seriesOverrides": [],
      "spaceLength": 10,
      "stack": false,
      "steppedLine": false,
      "targets": [
        {
          "format": "time_series",
          "group": [],
          "metricColumn": "none",
          "rawQuery": false,
          "rawSql": "SELECT\n  \"timestamp\" AS \"time\",\n  accel_x\nFROM accel_data\nORDER BY 1",
          "refId": "A",
          "select": [
            [
              {
                "params": [
                  "accel_x"
                ],
                "type": "column"
              }
            ]
          ],
          "table": "accel_data",
          "timeColumn": "\"timestamp\"",
          "timeColumnType": "int8",
          "where": []
        },
        {
          "format": "time_series",
          "group": [],
          "metricColumn": "none",
          "rawQuery": false,
          "rawSql": "SELECT\n  \"timestamp\" AS \"time\",\n  accel_y\nFROM accel_data\nORDER BY 1",
          "refId": "B",
          "select": [
            [
              {
                "params": [
                  "accel_y"
                ],
                "type": "column"
              }
            ]
          ],
          "table": "accel_data",
          "timeColumn": "\"timestamp\"",
          "timeColumnType": "int8",
          "where": []
        },
        {
          "format": "time_series",
          "group": [],
          "metricColumn": "none",
          "rawQuery": false,
          "rawSql": "SELECT\n  \"timestamp\" AS \"time\",\n  accel_z\nFROM accel_data\nORDER BY 1",
          "refId": "C",
          "select": [
            [
              {
                "params": [
                  "accel_z"
                ],
                "type": "column"
              }
            ]
          ],
          "table": "accel_data",
          "timeColumn": "\"timestamp\"",
          "timeColumnType": "int8",
          "where": []
        }
      ],
      "thresholds": [],
      "timeFrom": null,
      "timeRegions": [],
      "timeShift": null,
      "title": "ACCELEROMETER",
      "tooltip": {
        "shared": true,
        "sort": 0,
        "value_type": "individual"
      },
      "transparent": false,
      "type": "graph",
      "xaxis": {
        "buckets": null,
        "mode": "time",
        "name": null,
        "show": true,
        "values": []
      },
      "yaxes": [
        {
          "format": "short",
          "label": null,
          "logBase": 1,
          "max": null,
          "min": null,
          "show": true
        },
        {
          "format": "short",
          "label": null,
          "logBase": 1,
          "max": null,
          "min": null,
          "show": true
        }
      ],
      "yaxis": {
        "align": false,
        "alignLevel": null
      }
    },
    {
      "columns": [],
      "fontSize": "100%",
      "gridPos": {
        "h": 9,
        "w": 6,
        "x": 0,
        "y": 9
      },
      "id": 7,
      "links": [],
      "pageSize": null,
      "scroll": true,
      "showHeader": true,
      "sort": {
        "col": 0,
        "desc": true
      },
      "styles": [
        {
          "alias": "Time",
          "dateFormat": "YYYY-MM-DD HH:mm:ss",
          "pattern": "Time",
          "type": "date"
        },
        {
          "alias": "",
          "colorMode": null,
          "colors": [
            "rgba(245, 54, 54, 0.9)",
            "rgba(237, 129, 40, 0.89)",
            "rgba(50, 172, 45, 0.97)"
          ],
          "decimals": 2,
          "pattern": "/.*/",
          "thresholds": [],
          "type": "number",
          "unit": "short"
        }
      ],
      "targets": [
        {
          "format": "table",
          "group": [],
          "metricColumn": "none",
          "rawQuery": true,
          "rawSql": "SELECT *\nFROM users;",
          "refId": "A",
          "select": [
            [
              {
                "params": [
                  "value"
                ],
                "type": "column"
              }
            ]
          ],
          "timeColumn": "time",
          "where": [
            {
              "name": "$__timeFilter",
              "params": [],
              "type": "macro"
            }
          ]
        }
      ],
      "title": "USER INFORMATION",
      "transform": "table",
      "type": "table"
    },
    {
      "columns": [],
      "fontSize": "100%",
      "gridPos": {
        "h": 9,
        "w": 6,
        "x": 6,
        "y": 9
      },
      "id": 9,
      "interval": "10m",
      "links": [],
      "pageSize": null,
      "scroll": true,
      "showHeader": true,
      "sort": {
        "col": null,
        "desc": false
      },
      "styles": [
        {
          "alias": "",
          "colorMode": null,
          "colors": [
            "rgba(245, 54, 54, 0.9)",
            "rgba(237, 129, 40, 0.89)",
            "rgba(50, 172, 45, 0.97)"
          ],
          "dateFormat": "YYYY-MM-DD HH:mm:ss",
          "decimals": 0,
          "mappingType": 1,
          "pattern": "Id",
          "thresholds": [],
          "type": "number",
          "unit": "short"
        },
        {
          "alias": "",
          "colorMode": null,
          "colors": [
            "rgba(245, 54, 54, 0.9)",
            "rgba(237, 129, 40, 0.89)",
            "rgba(50, 172, 45, 0.97)"
          ],
          "decimals": 2,
          "pattern": "/.*/",
          "thresholds": [],
          "type": "number",
          "unit": "short"
        }
      ],
      "targets": [
        {
          "format": "table",
          "group": [],
          "metricColumn": "none",
          "rawQuery": true,
          "rawSql": "SELECT name AS \"Event Name\", id AS \"Id\"\nFROM event_type;",
          "refId": "A",
          "select": [
            [
              {
                "params": [
                  "value"
                ],
                "type": "column"
              }
            ]
          ],
          "timeColumn": "time",
          "where": [
            {
              "name": "$__timeFilter",
              "params": [],
              "type": "macro"
            }
          ]
        }
      ],
      "title": "EVENT TYPES",
      "transform": "table",
      "transparent": false,
      "type": "table"
    },
    {
      "aliasColors": {},
      "bars": false,
      "dashLength": 10,
      "dashes": false,
      "fill": 0,
      "gridPos": {
        "h": 9,
        "w": 12,
        "x": 12,
        "y": 9
      },
      "id": 3,
      "legend": {
        "avg": false,
        "current": false,
        "max": false,
        "min": false,
        "show": true,
        "total": false,
        "values": false
      },
      "lines": false,
      "linewidth": 1,
      "links": [],
      "nullPointMode": "null",
      "percentage": false,
      "pointradius": 0.5,
      "points": true,
      "renderer": "flot",
      "seriesOverrides": [],
      "spaceLength": 10,
      "stack": false,
      "steppedLine": false,
      "targets": [
        {
          "format": "time_series",
          "group": [],
          "metricColumn": "none",
          "rawQuery": false,
          "rawSql": "SELECT\n  \"timestamp\" AS \"time\",\n  gyro_x\nFROM gyro_data\nORDER BY 1",
          "refId": "A",
          "select": [
            [
              {
                "params": [
                  "gyro_x"
                ],
                "type": "column"
              }
            ]
          ],
          "table": "gyro_data",
          "timeColumn": "\"timestamp\"",
          "timeColumnType": "int8",
          "where": []
        },
        {
          "format": "time_series",
          "group": [],
          "metricColumn": "none",
          "rawQuery": false,
          "rawSql": "SELECT\n  \"timestamp\" AS \"time\",\n  gyro_y\nFROM gyro_data\nORDER BY 1",
          "refId": "B",
          "select": [
            [
              {
                "params": [
                  "gyro_y"
                ],
                "type": "column"
              }
            ]
          ],
          "table": "gyro_data",
          "timeColumn": "\"timestamp\"",
          "timeColumnType": "int8",
          "where": []
        },
        {
          "format": "time_series",
          "group": [],
          "metricColumn": "none",
          "rawQuery": false,
          "rawSql": "SELECT\n  \"timestamp\" AS \"time\",\n  gyro_z\nFROM gyro_data\nORDER BY 1",
          "refId": "C",
          "select": [
            [
              {
                "params": [
                  "gyro_z"
                ],
                "type": "column"
              }
            ]
          ],
          "table": "gyro_data",
          "timeColumn": "\"timestamp\"",
          "timeColumnType": "int8",
          "where": []
        }
      ],
      "thresholds": [],
      "timeFrom": null,
      "timeRegions": [],
      "timeShift": null,
      "title": "GYROSCOPE",
      "tooltip": {
        "shared": true,
        "sort": 0,
        "value_type": "individual"
      },
      "transparent": false,
      "type": "graph",
      "xaxis": {
        "buckets": null,
        "mode": "time",
        "name": null,
        "show": true,
        "values": []
      },
      "yaxes": [
        {
          "format": "short",
          "label": null,
          "logBase": 1,
          "max": null,
          "min": null,
          "show": true
        },
        {
          "format": "short",
          "label": null,
          "logBase": 1,
          "max": null,
          "min": null,
          "show": true
        }
      ],
      "yaxis": {
        "align": false,
        "alignLevel": null
      }
    }
  ],
  "refresh": false,
  "schemaVersion": 16,
  "style": "dark",
  "tags": [],
  "templating": {
    "list": [
      {
        "allValue": null,
        "current": {
          "tags": [],
          "text": "101983645250378055770",
          "value": "101983645250378055770"
        },
        "datasource": "PostgreSQL",
        "definition": "SELECT user_id FROM users;",
        "hide": 0,
        "includeAll": false,
        "label": "Select User",
        "multi": false,
        "name": "users",
        "options": [
          {
            "selected": true,
            "text": "101983645250378055770",
            "value": "101983645250378055770"
          }
        ],
        "query": "SELECT user_id FROM users;",
        "refresh": 0,
        "regex": "",
        "skipUrlSync": false,
        "sort": 0,
        "tagValuesQuery": "",
        "tags": [],
        "tagsQuery": "",
        "type": "query",
        "useTags": false
      },
      {
        "allValue": null,
        "current": {
          "tags": [],
          "text": "stand",
          "value": [
            "stand"
          ]
        },
        "datasource": "PostgreSQL",
        "definition": "SELECT name FROM event_type;",
        "hide": 2,
        "includeAll": false,
        "label": null,
        "multi": true,
        "name": "activities",
        "options": [
          {
            "selected": true,
            "text": "stand",
            "value": "stand"
          },
          {
            "selected": false,
            "text": "sit",
            "value": "sit"
          },
          {
            "selected": false,
            "text": "walk",
            "value": "walk"
          },
          {
            "selected": false,
            "text": "stairsup",
            "value": "stairsup"
          },
          {
            "selected": false,
            "text": "stairsdown",
            "value": "stairsdown"
          },
          {
            "selected": false,
            "text": "bike",
            "value": "bike"
          }
        ],
        "query": "SELECT name FROM event_type;",
        "refresh": 0,
        "regex": "",
        "skipUrlSync": false,
        "sort": 0,
        "tagValuesQuery": "",
        "tags": [],
        "tagsQuery": "",
        "type": "query",
        "useTags": false
      }
    ]
  },
  "time": {
    "from": "2019-02-24T19:55:16.280Z",
    "to": "2019-02-24T20:25:05.533Z"
  },
  "timepicker": {
    "refresh_intervals": [
      "0.5s",
      " 1s",
      " 5s",
      "10s",
      "30s",
      "1m",
      "5m",
      "15m",
      "30m",
      "1h",
      "2h",
      "1d"
    ],
    "time_options": [
      "5m",
      "15m",
      "1h",
      "6h",
      "12h",
      "24h",
      "2d",
      "7d",
      "30d"
    ]
  },
  "timezone": "",
  "title": "ML HAR",
  "uid": "CQmFeTrmk",
  "version": 1
}